<?xml version="1.0" encoding="UTF-8" standalone="no"?>
<!DOCTYPE svg PUBLIC "-//W3C//DTD SVG 1.1//EN" "http://www.w3.org/Graphics/SVG/1.1/DTD/svg11.dtd">
<svg width="100%" height="100%" viewBox="0 0 20 20" version="1.1" xmlns="http://www.w3.org/2000/svg" xmlns:xlink="http://www.w3.org/1999/xlink" xml:space="preserve" xmlns:serif="http://www.serif.com/" style="fill-rule:evenodd;clip-rule:evenodd;stroke-linejoin:round;stroke-miterlimit:1.41421;">
    <g transform="matrix(1,0,0,1,-274.015,-9659.39)">
        <g transform="matrix(0.54734,0,0,0.435429,-2034.03,9301.88)">
            <g transform="matrix(0.0713679,0,0,0.0897105,4216.84,821.062)">
                <path d="M0,452L512,452L512,512L0,512L0,452ZM443.211,331L512,262.211L512,422L0,422L0,262.211L68.789,331L181,331L181,361L331,361L331,331L443.211,331ZM211,301L301,301L301,331L211,331L211,301ZM512,219.789L430.789,301L331,301L331,271L181,271L181,301L81.211,301L0,219.789L0,121L512,121L512,219.789ZM151,61L121,61L121,0L391,0L391,61L361,61L361,91L331,91L331,61L181,61L181,91L151,91L151,61Z" style="fill:rgb(251,84,89);fill-rule:nonzero;"/>
            </g>
        </g>
    </g>
</svg>
