<?xml version="1.0" encoding="UTF-8" standalone="no"?>
<!DOCTYPE svg PUBLIC "-//W3C//DTD SVG 1.1//EN" "http://www.w3.org/Graphics/SVG/1.1/DTD/svg11.dtd">
<svg width="100%" height="100%" viewBox="0 0 20 19" version="1.1" xmlns="http://www.w3.org/2000/svg" xmlns:xlink="http://www.w3.org/1999/xlink" xml:space="preserve" xmlns:serif="http://www.serif.com/" style="fill-rule:evenodd;clip-rule:evenodd;stroke-linejoin:round;stroke-miterlimit:1.41421;">
    <g transform="matrix(1,0,0,1,-616.755,-9997.1)">
        <g transform="matrix(0.54734,0,0,0.435429,-2034.03,9301.88)">
            <g transform="matrix(0.0713682,0,0,0.0897108,4843.03,1595.19)">
                <path d="M239.992,367.999C275.282,367.999 303.997,396.712 303.997,432.002L303.997,436.438C319.997,441.981 320.003,452.184 320.004,464C320.004,481.672 305.673,495.998 288.001,495.998L31.996,495.998C14.324,495.998 0,481.672 0,464C0,452.19 -0.003,441.99 15.997,436.445L15.997,432.002C15.997,396.713 44.699,367.999 79.989,367.999L239.992,367.999ZM223.992,15.999C241.665,16 255.997,30.323 255.997,47.995L255.997,63.995C255.997,81.668 239.997,95.996 223.997,95.996L223.997,127.999L479.997,127.999C497.669,127.999 511.998,142.328 511.998,160C511.998,177.672 497.669,192 479.997,192L223.997,192L223.997,223.999C239.997,223.999 255.997,238.328 255.997,256L255.997,272C255.997,289.672 241.664,304 223.992,304L95.989,304C78.317,304 63.997,289.672 63.997,272L63.997,256C63.997,238.327 79.997,223.999 95.997,223.999L95.997,95.996C79.997,95.996 63.997,81.667 63.997,63.995L63.997,47.995C63.997,30.323 78.316,16 95.989,15.999L223.992,15.999Z" style="fill:rgb(114,38,84);fill-rule:nonzero;"/>
            </g>
        </g>
    </g>
</svg>
