<?xml version="1.0" encoding="UTF-8" standalone="no"?>
<!DOCTYPE svg PUBLIC "-//W3C//DTD SVG 1.1//EN" "http://www.w3.org/Graphics/SVG/1.1/DTD/svg11.dtd">
<svg width="100%" height="100%" viewBox="0 0 30 24" version="1.1" xmlns="http://www.w3.org/2000/svg" xmlns:xlink="http://www.w3.org/1999/xlink" xml:space="preserve" xmlns:serif="http://www.serif.com/" style="fill-rule:evenodd;clip-rule:evenodd;stroke-linejoin:round;stroke-miterlimit:1.41421;">
    <g transform="matrix(1,0,0,1,-5568.63,-1228.84)">
        <g transform="matrix(0.54734,0,0,0.435429,1964.19,1170.28)">
            <g id="Mail-Icon" serif:id="Mail Icon" transform="matrix(2.25008,0,0,2.82838,5437.84,-7553.05)">
                <path d="M532.5,2737L511.5,2737C510.672,2737 510,2736.33 510,2735.5L510,2719.5C510,2718.67 510.672,2718 511.5,2718L532.5,2718C533.329,2718 534,2718.67 534,2719.5L534,2735.5C534,2736.33 533.329,2737 532.5,2737ZM531,2734L531,2722.43L522.731,2730.7C522.528,2730.91 522.261,2731.01 521.995,2731C521.729,2731.01 521.461,2730.91 521.258,2730.7L513,2722.44L513,2734L531,2734ZM529.561,2721L514.429,2721L521.995,2728.58L529.561,2721Z" style="fill:rgb(114,38,84);"/>
            </g>
        </g>
    </g>
</svg>
