<?xml version="1.0" encoding="UTF-8" standalone="no"?>
<!DOCTYPE svg PUBLIC "-//W3C//DTD SVG 1.1//EN" "http://www.w3.org/Graphics/SVG/1.1/DTD/svg11.dtd">
<svg width="100%" height="100%" viewBox="0 0 79 79" version="1.1" xmlns="http://www.w3.org/2000/svg" xmlns:xlink="http://www.w3.org/1999/xlink" xml:space="preserve" xmlns:serif="http://www.serif.com/" style="fill-rule:evenodd;clip-rule:evenodd;stroke-linejoin:round;stroke-miterlimit:1.41421;">
    <g transform="matrix(1,0,0,1,-11574.5,-5154.45)">
        <g transform="matrix(0.410917,0,0,0.326899,9406.7,4681.88)">
            <g transform="matrix(0.889344,0,0,1.11792,3123.07,1128.29)">
                <g transform="matrix(1.04602,0,0,1.04602,-116.36,-4054.39)">
                    <path d="M2631.24,4178.21C2631.24,4161.19 2617.43,4147.38 2600.41,4147.38L2456.53,4147.38C2439.51,4147.38 2425.7,4161.19 2425.7,4178.21L2425.7,4322.09C2425.7,4339.1 2439.51,4352.92 2456.53,4352.92L2600.41,4352.92C2617.43,4352.92 2631.24,4339.1 2631.24,4322.09L2631.24,4178.21Z" style="fill:url(#_Linear1);"/>
                </g>
                <g transform="matrix(1,0,0,1,0,0.234941)">
                    <g transform="matrix(2.73638,-0,-0,2.73638,2414.78,283.613)">
                        <use xlink:href="#_Image2" x="7.07" y="5.304" width="67.964px" height="67.969px" transform="matrix(0.999467,0,0,0.99954,0,0)"/>
                    </g>
                    <g transform="matrix(1.00935,0,0,0.989967,226.45,-3821.56)">
                        <path d="M2195.14,4181.25C2195.14,4178.14 2196.35,4175.15 2198.51,4172.95C2200.67,4170.74 2203.59,4169.51 2206.65,4169.51C2237.42,4169.51 2321.3,4169.51 2352.05,4169.51C2358.41,4169.51 2363.56,4174.76 2363.56,4181.23C2363.56,4212.6 2363.56,4298.14 2363.56,4329.5C2363.56,4335.98 2358.41,4341.23 2352.05,4341.23C2321.32,4341.23 2237.53,4341.23 2206.82,4341.23C2200.47,4341.23 2195.32,4335.99 2195.32,4329.52C2195.28,4298.17 2195.18,4212.63 2195.14,4181.25Z" style="fill:white;"/>
                    </g>
                    <g transform="matrix(2.73638,-0,-0,2.73638,2414.78,283.613)">
                        <use xlink:href="#_Image3" x="2" y="40.475" width="79.184px" height="31.591px" transform="matrix(0.989803,0,0,0.987229,0,0)"/>
                    </g>
                    <g transform="matrix(1,0,0,1,238.289,-3854.5)">
                        <path d="M2203.97,4250.11L2373.89,4249.64C2373.89,4249.64 2381.41,4271.56 2387.39,4288.98C2389.05,4293.82 2388.27,4299.18 2385.29,4303.35C2382.31,4307.51 2377.5,4309.98 2372.38,4309.98C2331.69,4309.94 2245.88,4309.86 2207.2,4309.82C2202.53,4309.81 2198.13,4307.63 2195.3,4303.91C2192.47,4300.2 2191.54,4295.38 2192.78,4290.87C2197.58,4273.39 2203.97,4250.11 2203.97,4250.11Z" style="fill:url(#_Linear4);"/>
                    </g>
                    <g transform="matrix(8.29894,0,0,8.29894,-16312,-33829.5)">
                        <clipPath id="_clip5">
                            <rect x="2260.78" y="4117.03" width="18.165" height="6.945"/>
                        </clipPath>
                        <g clip-path="url(#_clip5)">
                            <clipPath id="_clip6">
                                <path d="M2264.79,4127.08L2266.54,4127.08L2266.54,4122.49C2266.54,4122.26 2266.54,4122.03 2266.56,4121.78L2265.53,4122.64C2265.46,4122.69 2265.39,4122.73 2265.33,4122.75C2265.26,4122.77 2265.19,4122.79 2265.13,4122.79C2265.02,4122.79 2264.93,4122.76 2264.84,4122.71C2264.76,4122.67 2264.69,4122.61 2264.65,4122.56L2264.04,4121.75L2266.88,4119.37L2268.47,4119.37L2268.47,4127.08L2269.97,4127.08L2269.97,4128.48L2264.79,4128.48L2264.79,4127.08Z" clip-rule="nonzero"/>
                            </clipPath>
                            <g clip-path="url(#_clip6)">
                                <g transform="matrix(0.329726,-0,-0,0.329726,2256.53,4110.54)">
                                    <use xlink:href="#_Image7" x="24.041" y="26.843" width="18.007px" height="13.97px" transform="matrix(0.947756,0,0,0.997852,0,0)"/>
                                </g>
                            </g>
                        </g>
                    </g>
                    <g transform="matrix(8.29894,0,0,8.29894,-16259,-33829.5)">
                        <clipPath id="_clip8">
                            <rect x="2260.78" y="4117.03" width="18.165" height="6.945"/>
                        </clipPath>
                        <g clip-path="url(#_clip8)">
                            <clipPath id="_clip9">
                                <path d="M2264.79,4127.08L2266.54,4127.08L2266.54,4122.49C2266.54,4122.26 2266.54,4122.03 2266.56,4121.78L2265.53,4122.64C2265.46,4122.69 2265.39,4122.73 2265.33,4122.75C2265.26,4122.77 2265.19,4122.79 2265.13,4122.79C2265.02,4122.79 2264.93,4122.76 2264.84,4122.71C2264.76,4122.67 2264.69,4122.61 2264.65,4122.56L2264.04,4121.75L2266.88,4119.37L2268.47,4119.37L2268.47,4127.08L2269.97,4127.08L2269.97,4128.48L2264.79,4128.48L2264.79,4127.08Z" clip-rule="nonzero"/>
                            </clipPath>
                            <g clip-path="url(#_clip9)">
                                <g transform="matrix(0.329726,-0,-0,0.329726,2250.14,4110.54)">
                                    <use xlink:href="#_Image10" x="44.474" y="26.843" width="18.007px" height="13.97px" transform="matrix(0.947756,0,0,0.997852,0,0)"/>
                                </g>
                            </g>
                        </g>
                    </g>
                    <g transform="matrix(8.29894,0,-1.44007,8.29894,-10373.2,-33829.5)">
                        <g>
                            <clipPath id="_clip11">
                                <rect x="2260.78" y="4123.97" width="18.165" height="6.945"/>
                            </clipPath>
                            <g clip-path="url(#_clip11)">
                                <clipPath id="_clip12">
                                    <path d="M2264.79,4127.08L2266.54,4127.08L2266.54,4122.49C2266.54,4122.26 2266.54,4122.03 2266.56,4121.78L2265.53,4122.64C2265.46,4122.69 2265.39,4122.73 2265.33,4122.75C2265.26,4122.77 2265.19,4122.79 2265.13,4122.79C2265.02,4122.79 2264.93,4122.76 2264.84,4122.71C2264.76,4122.67 2264.69,4122.61 2264.65,4122.56L2264.04,4121.75L2266.88,4119.37L2268.47,4119.37L2268.47,4127.08L2269.97,4127.08L2269.97,4128.48L2264.79,4128.48L2264.79,4127.08Z" clip-rule="nonzero"/>
                                </clipPath>
                                <g clip-path="url(#_clip12)">
                                    <g transform="matrix(0.329726,-0,0.0572157,0.329726,2254.19,4110.54)">
                                        <use xlink:href="#_Image13" x="23.419" y="41.749" width="16.47px" height="13.667px" transform="matrix(0.968796,0,0,0.976189,0,0)"/>
                                    </g>
                                </g>
                            </g>
                        </g>
                    </g>
                    <g transform="matrix(8.29894,0,0.933862,8.29894,-20110.2,-33829.5)">
                        <g>
                            <clipPath id="_clip14">
                                <rect x="2260.78" y="4123.97" width="18.165" height="6.945"/>
                            </clipPath>
                            <g clip-path="url(#_clip14)">
                                <clipPath id="_clip15">
                                    <path d="M2264.79,4127.08L2266.54,4127.08L2266.54,4122.49C2266.54,4122.26 2266.54,4122.03 2266.56,4121.78L2265.53,4122.64C2265.46,4122.69 2265.39,4122.73 2265.33,4122.75C2265.26,4122.77 2265.19,4122.79 2265.13,4122.79C2265.02,4122.79 2264.93,4122.76 2264.84,4122.71C2264.76,4122.67 2264.69,4122.61 2264.65,4122.56L2264.04,4121.75L2266.88,4119.37L2268.47,4119.37L2268.47,4127.08L2269.97,4127.08L2269.97,4128.48L2264.79,4128.48L2264.79,4127.08Z" clip-rule="nonzero"/>
                                </clipPath>
                                <g clip-path="url(#_clip15)">
                                    <g transform="matrix(0.329726,-0,-0.0371034,0.329726,2251.65,4110.54)">
                                        <use xlink:href="#_Image16" x="42.809" y="41.749" width="20.305px" height="13.667px" transform="matrix(0.966885,0,0,0.976189,0,0)"/>
                                    </g>
                                </g>
                            </g>
                        </g>
                    </g>
                </g>
                <g transform="matrix(2.28814,0,0,2.28814,-3260.89,-9240.76)">
                    <text x="2515.87px" y="4187.79px" style="font-family:'Lato-Black', 'Lato', sans-serif;font-weight:900;font-size:12.5px;fill:url(#_Linear17);">MA<tspan x="2537.19px " y="4187.79px ">J</tspan></text>
                </g>
            </g>
        </g>
    </g>
    <defs>
        <linearGradient id="_Linear1" x1="0" y1="0" x2="1" y2="0" gradientUnits="userSpaceOnUse" gradientTransform="matrix(205.543,-205.543,205.543,205.543,2425.7,4352.92)"><stop offset="0" style="stop-color:rgb(43,17,43);stop-opacity:1"/><stop offset="0.25" style="stop-color:rgb(110,72,108);stop-opacity:1"/><stop offset="0.49" style="stop-color:rgb(200,99,112);stop-opacity:1"/><stop offset="0.75" style="stop-color:rgb(156,58,64);stop-opacity:1"/><stop offset="1" style="stop-color:rgb(82,40,66);stop-opacity:1"/></linearGradient>
        <image id="_Image2" width="68px" height="68px" xlink:href="data:image/png;base64,iVBORw0KGgoAAAANSUhEUgAAAEQAAABECAYAAAA4E5OyAAAACXBIWXMAAA7EAAAOxAGVKw4bAAACE0lEQVR4nO2c3W7aQBBGj40TAmmq/kp9/+er2qqJ3AAB52J2Yveze1OplbL+jrRabAxijmbXF2amYU5TRlvmGhmAS5mH6RuNvG6BDrgq84ZRUA2kgDPwBJzKnHJeAm0IAVtgX8aOELP5rz/533MmRPwC+jIOhJihKxe1hIy3wAfgHfCmnKtRyAF4AH4A34CfRJacO8bs2BMyvgCfgDvgmpAFr3/Z5F5xAY7APXBTzuXyuaSQK0LIe+Az8LEc5/s1MRACtuX4kciWHjh1jBvpDrgllsq+fKDVb6uE3AbuiHh3hIM2b60bIku2xDJJUbWSSXBNxJw3j2a6P7STUdsyWWIx5qmQ6VgLs7hrXhZ/hYUIFiJYiLAkZFg4txqcIYKFCBYipJBV7xtTnCGChQgWIliIYCGChQgWIliIYCGChQgWIliIYCGChQgWIliIMBUy+3vRGnGGCBYiWIhgIYKFCBYiWIhgIYKFCBYiWIhgIYKf/gvOEMFCBAsRLESwEMFCBAsRLESwEMFChKXnMmt6PjOLuWWsgz+X8VL2XTkZd46ZkBNR4HtkrIevlQsR45Go8j4RyTB0jIW9WdB7T5RuZsV3bUWJGW9PxPpA9AF4olR2Ty/4zlj+feD3YubXLmap1P0rUf/fE1kyLAlpCBnZDKGmOt7cHrQZQk/pDjFtl7FhbJdxy0rbZbihyh8aqkxZdcudZwLwjG0ZqXo1AAAAAElFTkSuQmCC"/>
        <image id="_Image3" width="80px" height="32px" xlink:href="data:image/png;base64,iVBORw0KGgoAAAANSUhEUgAAAFAAAAAgCAYAAACFM/9sAAAACXBIWXMAAA7EAAAOxAGVKw4bAAABo0lEQVRoge2a0W6DMAxFb1D//48HfZg8nJvrEJg2lZgjoU7BTOupnWROC85TLjxzN7bRwCMZ/ynrUz4YlteV2fuji4j5lDf512ziZykyElJQC1QyZ2ZDLS6U+BIPl87lY2Zlo8uPN7BAllQALNASR7ibaJ9pq3u1sQISeZSBC3aBi7s/Mz7zVtTT11AJW7ASafdmhksXAL6wC6xEeoG8aKgsnH0xMUGWef4aKmE1B2ZZSEwQsCeOjXmJFQsPIJamtjUzobZuRy6kQIjA2UuXiUT6ewDahSH6FDIxLA+oM7AnLptE41Aml/Ap+5Mz5IIzMGvZMqfmwKhcH5HfdGX2StiPZRV5ag7sBWck2pn413AReWiRbqKN9EOM3Eg/XISbCdy6Vl3Y2cucu9DcnT5sqFrwCj1HDh/53Rg+D1EXgFpgN5B+cRZ8a9+39+0eXmhTloOydKIZ39bnM5KfDFUZaA8BdScWyCNRlfCKTgmrdjUfqGSRZ6iz4aaEWUrU0somz1CZ6MelmOj/4YyorUu1kPbEXL13d6Kdxqnvxvw2dgaGtmxvxJd1paqOAe4AAAAASUVORK5CYII="/>
        <linearGradient id="_Linear4" x1="0" y1="0" x2="1" y2="0" gradientUnits="userSpaceOnUse" gradientTransform="matrix(3.69633e-15,-60.3657,60.3657,3.69633e-15,2288.02,4310)"><stop offset="0" style="stop-color:white;stop-opacity:1"/><stop offset="1" style="stop-color:rgb(245,245,245);stop-opacity:1"/></linearGradient>
        <image id="_Image7" width="19px" height="14px" xlink:href="data:image/png;base64,iVBORw0KGgoAAAANSUhEUgAAABMAAAAOCAYAAADNGCeJAAAACXBIWXMAAA7EAAAOxAGVKw4bAAAA+0lEQVQ4jYWSQXbEMAhDv4h7w56j5+llgS6MJyTjdBZ+sfUQEUL6/f7JYTC0jujvQ/BV+GHzHhlkBLFOzu9wQAlinUSp9gYHpIk7cMgIgQQyUIAJhl8aVUEmQjfsXidkwqprSAzvxB3porxqa2xDhKwUZlP21ugkXnCdNgwZUkyVGCMSnMRSxPIHMMCLaA2/KzebCgmVMkEf15mGKuu+FlGYkXjVmoRq1M02i9h88jbuqT4JhOf0T9J9m599um70xA+zXTQ2xGw/+icu12baELcZe4hL5OmJ5X2bD3F5mOalLFqjaLFYhlvD32JU3IrGZ5+8jeetzmsikfwB/SWdGtnNJzgAAAAASUVORK5CYII="/>
        <image id="_Image10" width="19px" height="14px" xlink:href="data:image/png;base64,iVBORw0KGgoAAAANSUhEUgAAABMAAAAOCAYAAADNGCeJAAAACXBIWXMAAA7EAAAOxAGVKw4bAAAA/0lEQVQ4jYWSa3LEMAiDPxH3hj3HnqeXNfSH8RpnnTYzzkODiBDSz/crmkHTPKJ+X4KvxC8b7x5OuOPzxHi2DihAzBMoVL6hA9LAO3DJcIEEMpCDCVrfGmVBBEI37F4nZMKyq0u0Xokn0qY8a3NsQ7gsFUZR9tFoETdcy4YmQ/KhEqN5QCewED79AQzoSbSC35WbDYW4UpmgjtsZhiryfS4iMSPoWWsSylEP20xi8amXcZf6wBE9hn+S7tv836d9owu/zE7ROBCj/OiPuOzNdCAeM/YQF4/licV9mw9xeZjmrcxLIy+xmIZbwT9ilNyMxvLpfcW8DVTzFux1qR6CX7ShmhkZ72J2AAAAAElFTkSuQmCC"/>
        <image id="_Image13" width="17px" height="14px" xlink:href="data:image/png;base64,iVBORw0KGgoAAAANSUhEUgAAABEAAAAOCAYAAADJ7fe0AAAACXBIWXMAAA7EAAAOxAGVKw4bAAABDElEQVQokW2SQZLEIAwDW4S/7Vf2uv+vSHuwCWRqDlSCMbZaRn8/v7kEU+ISzEF9nyWmKnaN7/F5BwQYGIJzb+Cm9hIox/5YcycGRYiPRAUjnB2rBsES9yoidHSuQhEEcN5xAVYXCgzEjIOHXt29sBrBHb/V53mjTscQkEYfbCyviyksRW+fGmvaLpxmH0Co/7sNXfLFmdNxtRJFyOIeOgyFwZ7WaerCWqizaEIUknK8TMs2eXUGrDA+sKZZSto+1bTU8m9UBnOamienlRg/GIJcRHvkQyJfH1kVN4cnsTBGUik7saSH3+sJsKc145YnQ2MJgcYbS3pN6pxiKwG7CEuJkYWHXtP4fGRr/QOEAcoPd6wdBQAAAABJRU5ErkJggg=="/>
        <image id="_Image16" width="21px" height="14px" xlink:href="data:image/png;base64,iVBORw0KGgoAAAANSUhEUgAAABUAAAAOCAYAAADABlfOAAAACXBIWXMAAA7EAAAOxAGVKw4bAAABlklEQVQ4jWWTXU4kMQyEv0qCFiGEZqaBPQBn4XHPsdrDLwsPCASxvQ/56Qy0VIq70rErZbf+PP6OIlEERaIkyIIiuFCPU9vPnSuCnKAwznUkePj1SPFwjIwAESiEAANEexSB2HkEBEgtTICprW//nim5ZLw6RmqJvySQQNELdl4xiu4c0Qq8Pb2QbrYD7o5HYKgDKsIRHjtswc5ztv/69EI6bDc9aUtcA2qAjbgrHpzN/RWN94DXv8+Uw21TioaDGUv65jGLDQxueA7Qbft8/6Acbo+YezsEzSNlHBqirdPfXszR/GY0tRKAKMe7I+7WD4iZPeUzBetEfGvc5No35XS/4RGt6xEonHDhBDWpdzXmgCWajwnwrtiWpCIop/sT7r5crVuAMKXp6VQ2ZnTxlC9c2X5ueBjy0Q1BNIU5wCPj0uKxdhsGXCjt9pSr6ysuLn/w+f7RNK6KNRTn8ySrv4AUy40gSWK7OxEehDvhgXtg4ZgP2JzfSlCXrtuMY94mATRfbSbxCcPD5rsFmO8/xhj+OtfG/webDy2wguukaAAAAABJRU5ErkJggg=="/>
        <linearGradient id="_Linear17" x1="0" y1="0" x2="1" y2="0" gradientUnits="userSpaceOnUse" gradientTransform="matrix(159.486,-119.436,119.436,159.486,2451.04,4294.62)"><stop offset="0" style="stop-color:rgb(43,17,43);stop-opacity:1"/><stop offset="0.25" style="stop-color:rgb(110,72,108);stop-opacity:1"/><stop offset="0.49" style="stop-color:rgb(200,99,112);stop-opacity:1"/><stop offset="0.75" style="stop-color:rgb(156,58,64);stop-opacity:1"/><stop offset="1" style="stop-color:rgb(82,40,66);stop-opacity:1"/></linearGradient>
    </defs>
</svg>
