<?xml version="1.0" encoding="UTF-8" standalone="no"?>
<!DOCTYPE svg PUBLIC "-//W3C//DTD SVG 1.1//EN" "http://www.w3.org/Graphics/SVG/1.1/DTD/svg11.dtd">
<svg width="100%" height="100%" viewBox="0 0 15 15" version="1.1" xmlns="http://www.w3.org/2000/svg" xmlns:xlink="http://www.w3.org/1999/xlink" xml:space="preserve" xmlns:serif="http://www.serif.com/" style="fill-rule:evenodd;clip-rule:evenodd;stroke-linejoin:round;stroke-miterlimit:1.41421;">
    <g transform="matrix(1,0,0,1,-3537.6,-8627.86)">
        <g transform="matrix(0.54734,0,0,0.435429,-36.1556,8134.51)">
            <g transform="matrix(0.0617518,0,0,0.0758587,6522.36,1100.56)">
                <path d="M157.525,807.51C157.452,806.867 157.409,806.214 157.399,805.553C157.364,798.831 157.398,792.109 157.398,785.387C157.445,776.3 163.81,768.06 171.516,767.878C204.461,767.636 237.408,767.636 270.354,767.878C277.731,768.052 284.322,775.745 284.471,785.185C284.506,791.907 284.472,798.63 284.472,805.352C284.468,806.078 284.424,806.798 284.341,807.51C294.626,807.564 304.911,807.632 315.197,807.712C322.556,807.886 329.167,815.573 329.312,825.021C329.347,831.743 329.313,838.465 329.313,845.186C329.266,854.256 322.895,862.514 315.197,862.695C252.411,863.187 189.624,862.696 126.837,862.696C119.446,862.638 112.704,854.831 112.557,845.387C112.522,838.665 112.556,831.943 112.556,825.221C112.603,816.111 118.974,807.894 126.673,807.712C136.957,807.632 147.241,807.564 157.525,807.51ZM291.927,452.342C292.168,447.485 294.024,442.676 297.614,438.947C300.386,436.14 302.989,433.106 306.172,431.062C309.58,428.873 313.648,427.746 317.671,427.77C322.949,427.865 328.114,429.977 331.96,433.679C358.126,459.513 383.962,485.678 409.962,511.679C417.536,519.349 417.924,532.841 410.134,540.933C406.783,544.326 403.666,547.93 399.557,549.96C396.965,551.241 394.119,551.917 391.244,552.015C391.017,556.916 389.163,561.764 385.589,565.478C382.237,568.871 379.121,572.476 375.012,574.506C367.372,578.28 357.538,576.807 351.241,570.746C350.415,569.93 349.589,569.114 348.763,568.297C339.847,577.315 330.913,586.317 321.963,595.302C322.176,595.485 322.384,595.674 322.587,595.869C396.725,669.055 470.404,742.709 543.577,816.859C548.935,822.429 549.149,832.002 543.577,837.793C538.403,843.036 533.355,849.602 528.006,852.163C522.518,854.79 515.53,853.684 511.057,849.374C436.932,776.178 363.279,702.5 290.07,628.387C289.873,628.182 289.683,627.972 289.5,627.757C280.868,636.351 272.223,644.931 263.564,653.497L265.853,655.788C273.43,663.462 273.814,676.948 266.025,685.041C262.674,688.435 259.558,692.039 255.449,694.069C252.855,695.35 250.009,696.027 247.136,696.125C246.908,701.027 245.054,705.874 241.48,709.587C238.129,712.981 235.012,716.584 230.903,718.614C223.255,722.393 213.424,720.913 207.132,714.855C180.966,689.021 155.131,662.856 129.131,636.856C121.553,629.179 121.17,615.694 128.959,607.602C131.792,604.733 134.447,601.632 137.737,599.577C140.766,597.686 144.281,596.623 147.849,596.45C148.091,591.572 149.946,586.752 153.504,583.057C156.337,580.187 158.992,577.087 162.282,575.032C165.497,573.024 169.248,571.948 173.064,571.879C173.312,571.878 173.312,571.878 173.561,571.879C178.871,571.974 184.003,574.082 187.852,577.789L188.243,578.175C216.482,549.607 244.892,521.207 273.458,492.965L273.24,492.747C265.675,485.086 265.187,471.678 273.068,463.493C275.83,460.696 278.428,457.661 281.626,455.607C284.694,453.638 288.257,452.523 291.927,452.342ZM272.19,822.662C271.589,822.779 270.976,822.846 270.355,822.861C237.464,823.119 204.571,822.862 171.679,822.862C171.325,822.859 170.972,822.839 170.622,822.801C156.04,822.836 141.458,822.862 126.877,822.862C125.841,822.87 124.933,823.957 124.914,825.213C124.879,831.895 124.742,838.58 124.915,845.259C124.959,846.47 125.834,847.521 126.831,847.545C189.583,848.036 252.37,849.985 315.091,847.543C316.082,847.489 316.937,846.416 316.956,845.195C316.991,838.513 317.127,831.827 316.954,825.148C316.91,823.933 316.035,822.886 315.038,822.862C300.756,822.751 286.473,822.69 272.19,822.662ZM312.106,605.614C311.849,605.618 311.61,605.715 311.425,605.894C307.633,609.638 303.888,613.43 300.119,617.198C299.738,617.579 299.724,618.229 300.094,618.613C373.212,692.634 447.235,765.755 520.806,839.325C521.191,839.71 521.842,839.717 522.221,839.351C526.014,835.608 529.757,831.816 533.525,828.048C533.908,827.665 533.918,827.012 533.55,826.63C460.469,752.574 386.41,679.49 312.84,605.92C312.643,605.723 312.386,605.612 312.106,605.614ZM270.152,783.028L171.717,783.028C170.681,783.036 169.775,784.121 169.755,785.379C169.72,792.061 169.585,798.746 169.757,805.425C169.788,806.283 170.235,807.059 170.846,807.448C204.24,807.308 237.634,807.308 271.027,807.448C271.649,807.049 272.1,806.244 272.114,805.359C272.149,798.678 272.286,791.993 272.113,785.315C272.068,784.083 271.17,783.029 270.152,783.028ZM169.456,628.122C164.155,622.86 158.847,617.606 153.533,612.358C152.242,611.115 150.49,610.413 148.684,610.424C144.892,610.492 142.044,614.276 138.983,617.375C136.539,619.915 136.51,624.34 138.983,626.908C164.789,653.05 190.766,679.023 216.906,704.831C219.45,707.28 223.869,707.304 226.438,704.831C230.336,700.982 234.909,696.804 232.759,692.167C232.434,691.467 231.989,690.836 231.455,690.281C228.396,687.184 225.335,684.089 222.272,680.996C204.593,663.445 187.04,645.769 169.456,628.122ZM184.986,594.642C182.685,592.364 180.382,590.088 178.078,587.813C176.787,586.57 175.04,585.868 173.229,585.879C169.422,585.947 166.589,589.73 163.529,592.83C161.082,595.372 161.057,599.794 163.529,602.363C166.586,605.458 169.645,608.552 172.707,611.643C190.413,629.222 207.994,646.925 225.606,664.599C230.881,669.835 236.163,675.064 241.451,680.285C244,682.739 248.416,682.757 250.983,680.285C254.116,677.192 257.936,674.329 257.936,670.502C257.936,668.747 257.228,667.01 256.001,665.735C253.059,662.756 250.115,659.778 247.168,656.803C246.54,656.411 245.945,655.952 245.396,655.424C225.575,635.86 205.877,616.169 186.316,596.345C185.812,595.82 185.368,595.249 184.986,594.642ZM198.199,588.038C216.762,606.478 235.192,625.051 253.665,643.579L294.338,602.906C296.365,600.708 298.404,598.534 300.555,596.69L338.791,558.454L283.287,502.95L198.199,588.038ZM313.487,483.936C308.213,478.7 302.931,473.471 297.642,468.25C296.352,467.008 294.599,466.304 292.793,466.315C289.001,466.383 286.152,470.168 283.092,473.267C280.641,475.812 280.62,480.231 283.092,482.799C286.86,486.615 290.631,490.427 294.406,494.235C312.479,512.098 330.44,530.073 348.305,548.145C352.537,552.342 356.774,556.534 361.015,560.722C363.557,563.169 367.979,563.194 370.547,560.721C373.659,557.649 377.453,554.815 377.499,551.021C377.52,549.237 376.809,547.465 375.565,546.173C372.507,543.077 369.447,539.983 366.384,536.892C348.678,519.315 331.098,501.61 313.487,483.936ZM369.869,520.645C375.092,525.829 380.323,531.006 385.56,536.176C388.102,538.624 392.525,538.648 395.093,536.176C398.205,533.104 401.999,530.269 402.044,526.475C402.065,524.691 401.355,522.919 400.11,521.627C374.301,495.489 348.327,469.512 322.188,443.704C320.897,442.462 319.145,441.759 317.339,441.77C313.547,441.838 310.698,445.622 307.637,448.722C305.188,451.265 305.166,455.685 307.638,458.254C310.692,461.346 313.748,464.437 316.807,467.525C334.568,485.157 352.203,502.917 369.869,520.645Z" style="fill:rgb(113,36,83);fill-rule:nonzero;"/>
            </g>
        </g>
    </g>
</svg>
